%YAML 1.1
%TAG !u! tag:unity3d.com,2011:
--- !u!114 &11400000
MonoBehaviour:
  m_ObjectHideFlags: 0
  m_PrefabParentObject: {fileID: 0}
  m_PrefabInternal: {fileID: 0}
  m_GameObject: {fileID: 0}
  m_Enabled: 1
  m_EditorHideFlags: 0
  m_Script: {fileID: 11500000, guid: b50c750113ef5474f90172535dc8c74e, type: 3}
  m_Name: LaneSet 2
  m_EditorClassIdentifier: 
  ObjectLane: {fileID: 113682, guid: a5cef93a62c6e4941a0a96e1b5523e22, type: 2}
  XPosition: 15
